Locate, Download, and Read Argo Ocean Float Data • argodata
…
See the reference for argo_prof_levels() for more ways to load Argo profiles from argo_global_prof(), argo_global_bio_prof() and argo_global_synthetic_prof(); see argo_traj_measurement() for ways to load Argo trajectories from argo_global_traj() or argo_global_bio_traj(); see argo_meta_missions() for ways to load float meta from argo_global_meta(); see argo_tech_tech_param() for ways to load float technical information from argo_global_tech(); and see argo_info() and argo_vars() for ways to load global metadata from Argo NetCDF files.

Advanced

The argodata package also exports the low-level readers it uses to produce tables from Argo NetCDF files. You can access these using argo_read_*() functions.

prof_file <- system.file(
  "cache-test/dac/csio/2900313/profiles/D2900313_000.nc",
  package = "argodata"
)

argo_read_prof_levels(prof_file)
#> # A tibble: 70 × 17
#>    N_LEVELS N_PROF   PRES PRES_QC PRES_ADJUSTED PRES_ADJUSTED_QC
#>  *    <int>  <int>  <dbl> <chr>           <dbl> <chr>           
#>  1        1      1   9.80 1                9.80 1               
#>  2        2      1  20.1  1               20.1  1               
#>  3        3      1  29.9  1               29.9  1               
#>  4        4      1  39.7  1               39.7  1               
#>  5        5      1  49.9  1               49.9  1               
#>  6        6      1  60.3  1               60.3  1               
#>  7        7      1  69.7  1               69.7  1               
#>  8        8      1  80.3  1               80.3  1               
#>  9        9      1  90.2  1               90.2  1               
#> 10       10      1 100.   1              100.   1               
#> # … with 60 more rows, and 11 more variables: PRES_ADJUSTED_ERROR <dbl>,
#> #   TEMP <dbl>, TEMP_QC <chr>, TEMP_ADJUSTED <dbl>, TEMP_ADJUSTED_QC <chr>,
#> #   TEMP_ADJUSTED_ERROR <dbl>, PSAL <dbl>, PSAL_QC <chr>, PSAL_ADJUSTED <dbl>,
#> #   PSAL_ADJUSTED_QC <chr>, PSAL_ADJUSTED_ERROR <dbl>
…
