…
## Advanced

The argodata package also exports the low-level readers it uses to
produce tables from Argo NetCDF files. You can access these using
`argo_read_*()` functions.

``` r
prof_file <- system.file(
  "cache-test/dac/csio/2900313/profiles/D2900313_000.nc",
  package = "argodata"
)

argo_read_prof_levels(prof_file)
#> # A tibble: 70 x 30
#>    N_PROF CYCLE_NUMBER DIRECTION DATA_MODE   JULD JULD_QC JULD_LOCATION LATITUDE
#>     <int>        <int> <chr>     <chr>      <dbl> <chr>           <dbl>    <dbl>
#>  1      1            0 A         D         19582. 1              19582.     23.2
#>  2      1            0 A         D         19582. 1              19582.     23.2
#>  3      1            0 A         D         19582. 1              19582.     23.2
#>  4      1            0 A         D         19582. 1              19582.     23.2
#>  5      1            0 A         D         19582. 1              19582.     23.2
#>  6      1            0 A         D         19582. 1              19582.     23.2
#>  7      1            0 A         D         19582. 1              19582.     23.2
#>  8      1            0 A         D         19582. 1              19582.     23.2
#>  9      1            0 A         D         19582. 1              19582.     23.2
#> 10      1            0 A         D         19582. 1              19582.     23.2
#> # ... with 60 more rows, and 22 more variables: LONGITUDE <dbl>,
#> #   POSITION_QC <chr>, PROFILE_PRES_QC <chr>, PROFILE_TEMP_QC <chr>,
#> #   PROFILE_PSAL_QC <chr>, CONFIG_MISSION_NUMBER <int>, N_LEVELS <int>,
#> #   PRES <dbl>, PRES_QC <chr>, PRES_ADJUSTED <dbl>, PRES_ADJUSTED_QC <chr>,
#> #   PRES_ADJUSTED_ERROR <dbl>, TEMP <dbl>, TEMP_QC <chr>, TEMP_ADJUSTED <dbl>,
#> #   TEMP_ADJUSTED_QC <chr>, TEMP_ADJUSTED_ERROR <dbl>, PSAL <dbl>,
#> #   PSAL_QC <chr>, PSAL_ADJUSTED <dbl>, PSAL_ADJUSTED_QC <chr>,
#> #   PSAL_ADJUSTED_ERROR <dbl>
```
