…
```r
(prof <- argo_global_prof())
```

```
## Loading argo_global_prof()
```

```
## Downloading 1 file from 'https://data-argo.ifremer.fr'
```

```
## # A tibble: 2,524,364 x 8
##    file     date                latitude longitude ocean profiler_type
##    <chr>    <dttm>                 <dbl>     <dbl> <chr>         <dbl>
##  1 aoml/13~ 1997-07-29 20:03:00    0.267     -16.0 A               845
##  2 aoml/13~ 1997-08-09 19:21:12    0.072     -17.7 A               845
##  3 aoml/13~ 1997-08-20 18:45:45    0.543     -19.6 A               845
##  4 aoml/13~ 1997-08-31 19:39:05    1.26      -20.5 A               845
##  5 aoml/13~ 1997-09-11 18:58:08    0.72      -20.8 A               845
##  6 aoml/13~ 1997-09-22 19:57:02    1.76      -21.6 A               845
##  7 aoml/13~ 1997-10-03 19:15:49    2.60      -21.6 A               845
##  8 aoml/13~ 1997-10-14 18:39:35    1.76      -21.6 A               845
##  9 aoml/13~ 1997-10-25 19:32:34    1.80      -21.8 A               845
## 10 aoml/13~ 1997-11-05 18:51:42    1.64      -21.4 A               845
## # ... with 2,524,354 more rows, and 2 more variables:
## #   institution <chr>, date_update <dttm>
```
…
```r
(levels <- prof_gulf_stream_2020 %>% 
  argo_prof_levels())
```

```
## Downloading 757 files from 'https://data-argo.ifremer.fr'
```

```
## Extracting from 757 files
```

```
## # A tibble: 1,473,130 x 18
##    file   n_levels n_prof  pres pres_qc pres_adjusted pres_adjusted_qc
##    <chr>     <int>  <int> <dbl> <chr>           <dbl> <chr>           
##  1 aoml/~        1      1  1.12 1                1.12 1               
##  2 aoml/~        2      1  2    1                2    1               
##  3 aoml/~        3      1  3    1                3    1               
##  4 aoml/~        4      1  4    1                4    1               
##  5 aoml/~        5      1  4.96 1                4.96 1               
##  6 aoml/~        6      1  6    1                6    1               
##  7 aoml/~        7      1  7    1                7    1               
##  8 aoml/~        8      1  7.92 1                7.92 1               
##  9 aoml/~        9      1  9    1                9    1               
## 10 aoml/~       10      1 10    1               10    1               
## # ... with 1,473,120 more rows, and 11 more variables:
## #   pres_adjusted_error <dbl>, temp <dbl>, temp_qc <chr>,
## #   temp_adjusted <dbl>, temp_adjusted_qc <chr>,
## #   temp_adjusted_error <dbl>, psal <dbl>, psal_qc <chr>,
## #   psal_adjusted <dbl>, psal_adjusted_qc <chr>,
## #   psal_adjusted_error <dbl>
```
…
