Read Argo profiles — argo_read_prof_levels • argodata
…
    Value

    A tibble::tibble()

    Examples

prof_file <- system.file(
  "cache-test/dac/csio/2900313/profiles/D2900313_000.nc",
  package = "argodata"
)

argo_read_prof_levels(prof_file)

#> # A tibble: 70 x 17
#>    N_PROF N_LEVELS   PRES PRES_QC PRES_ADJUSTED PRES_ADJUSTED_QC
#>     <int>    <int>  <dbl> <chr>           <dbl> <chr>           
#>  1      1        1   9.80 1                9.80 1               
#>  2      1        2  20.1  1               20.1  1               
#>  3      1        3  29.9  1               29.9  1               
#>  4      1        4  39.7  1               39.7  1               
#>  5      1        5  49.9  1               49.9  1               
#>  6      1        6  60.3  1               60.3  1               
#>  7      1        7  69.7  1               69.7  1               
#>  8      1        8  80.3  1               80.3  1               
#>  9      1        9  90.2  1               90.2  1               
#> 10      1       10 100.   1              100.   1               
#> # … with 60 more rows, and 11 more variables: PRES_ADJUSTED_ERROR <dbl>,
#> #   TEMP <dbl>, TEMP_QC <chr>, TEMP_ADJUSTED <dbl>, TEMP_ADJUSTED_QC <chr>,
#> #   TEMP_ADJUSTED_ERROR <dbl>, PSAL <dbl>, PSAL_QC <chr>, PSAL_ADJUSTED <dbl>,
#> #   PSAL_ADJUSTED_QC <chr>, PSAL_ADJUSTED_ERROR <dbl>
…
