Prefer adjusted values — argo_use_adjusted • argodata
…
    Value

    A tibble::tibble() with

    Examples

library(dplyr, warn.conflicts = FALSE)

with_argo_example_cache({
  argo_prof_levels("dac/csio/2902746/profiles/BR2902746_001.nc") %>%
    argo_use_adjusted(doxy)
})

#> Extracting from 1 file
#> # A tibble: 101 x 15
#>    file  n_prof n_levels  pres c1phase_doxy c1phase_doxy_qc c2phase_doxy
#>    <chr>  <int>    <int> <dbl>        <dbl> <chr>                  <dbl>
#>  1 csio…      1        1 0.200         35.3 0                       5.62
#>  2 csio…      1        2 0.900         35.4 0                       5.61
#>  3 csio…      1        3 1.90          35.5 0                       5.60
#>  4 csio…      1        4 2.90          35.6 0                       5.60
#>  5 csio…      1        5 4             35.6 0                       5.59
#>  6 csio…      1        6 5             35.6 0                       5.59
#>  7 csio…      1        7 6             35.6 0                       5.59
#>  8 csio…      1        8 7.10          35.6 0                       5.58
#>  9 csio…      1        9 8.20          35.6 0                       5.58
#> 10 csio…      1       10 9.30          35.6 0                       5.58
#> # … with 91 more rows, and 8 more variables: c2phase_doxy_qc <chr>,
#> #   temp_doxy <dbl>, temp_doxy_qc <chr>, doxy <dbl>, doxy_qc <chr>,
#> #   doxy_adjusted <dbl>, doxy_adjusted_qc <chr>, doxy_adjusted_error <dbl>
…
