Load Argo profiles — argo_prof_levels • argodata
…
    Value

    A tibble::tibble().

    Examples

with_argo_example_cache({
  argo_prof_levels("dac/csio/2900313/profiles/D2900313_000.nc")
})

#> Extracting from 1 file
#> # A tibble: 70 x 18
#>    file            n_levels n_prof   pres pres_qc pres_adjusted pres_adjusted_qc
#>    <chr>              <int>  <int>  <dbl> <chr>           <dbl> <chr>           
#>  1 csio/2900313/p…        1      1   9.80 1                9.80 1               
#>  2 csio/2900313/p…        2      1  20.1  1               20.1  1               
#>  3 csio/2900313/p…        3      1  29.9  1               29.9  1               
#>  4 csio/2900313/p…        4      1  39.7  1               39.7  1               
#>  5 csio/2900313/p…        5      1  49.9  1               49.9  1               
#>  6 csio/2900313/p…        6      1  60.3  1               60.3  1               
#>  7 csio/2900313/p…        7      1  69.7  1               69.7  1               
#>  8 csio/2900313/p…        8      1  80.3  1               80.3  1               
#>  9 csio/2900313/p…        9      1  90.2  1               90.2  1               
#> 10 csio/2900313/p…       10      1 100.   1              100.   1               
#> # … with 60 more rows, and 11 more variables: pres_adjusted_error <dbl>,
#> #   temp <dbl>, temp_qc <chr>, temp_adjusted <dbl>, temp_adjusted_qc <chr>,
#> #   temp_adjusted_error <dbl>, psal <dbl>, psal_qc <chr>, psal_adjusted <dbl>,
#> #   psal_adjusted_qc <chr>, psal_adjusted_error <dbl>
…
