Argo QC test reference — argo_reference_history_qctest • argodata
…
argo_reference_history_qctest

#> # A tibble: 22 x 4
#>    history_qctest_num… history_qctest_f… history_qctest_descript… history_qctest
#>                  <int>             <int> <chr>                    <chr>         
#>  1                   1                 2 Platform Identification… 2             
#>  2                   2                 4 Impossible Date test     4             
#>  3                   3                 8 Impossible Location test 8             
#>  4                   4                16 Position on Land test    10            
#>  5                   5                32 Impossible Speed test    20            
#>  6                   6                64 Global Range test        40            
#>  7                   7               128 Regional Global Paramet… 80            
#>  8                   8               256 Pressure Increasing test 100           
#>  9                   9               512 Spike test               200           
#> 10                  10              1024 Top and Bottom Spike te… 400           
#> # … with 12 more rows
…
