Read Argo trajectories — argo_read_traj_measurement • argodata
…
argo_read_traj_cycle(): one per cycle.

argo_read_traj_param(): one per parameter.

argo_read_traj_history(): one row per history entry.

    Examples

traj_file <- system.file(
  "cache-test/dac/csio/2900313/2900313_Rtraj.nc",
  package = "argodata"
)

argo_read_traj_measurement(traj_file)
#> # A tibble: 61 × 33
#>    N_MEASUREMENT   JULD JULD_STATUS JULD_QC JULD_ADJUSTED JULD_ADJUSTED_STATUS
#>  *         <int>  <dbl> <chr>       <chr>           <dbl> <chr>               
#>  1             1 19573. 0           0                  NA " "                 
#>  2             2 19573. 4           1                  NA " "                 
#>  3             3 19582. 4           1                  NA " "                 
#>  4             4 19583. 4           1                  NA " "                 
#>  5             5 19583. 4           1                  NA " "                 
#>  6             6 19583. 4           1                  NA " "                 
#>  7             7 19583. 4           1                  NA " "                 
#>  8             8 19583. 4           1                  NA " "                 
#>  9             9 19592. 4           1                  NA " "                 
#> 10            10 19592. 4           1                  NA " "                 
#> # … with 51 more rows, and 27 more variables: JULD_ADJUSTED_QC <chr>,
#> #   LATITUDE <dbl>, LONGITUDE <dbl>, POSITION_ACCURACY <chr>,
#> #   POSITION_QC <chr>, CYCLE_NUMBER <dbl>, CYCLE_NUMBER_ADJUSTED <dbl>,
#> #   MEASUREMENT_CODE <dbl>, PRES <dbl>, PRES_QC <chr>, PRES_ADJUSTED <dbl>,
#> #   PRES_ADJUSTED_QC <chr>, PRES_ADJUSTED_ERROR <dbl>, TEMP <dbl>,
#> #   TEMP_QC <chr>, TEMP_ADJUSTED <dbl>, TEMP_ADJUSTED_QC <chr>,
#> #   TEMP_ADJUSTED_ERROR <dbl>, PSAL <dbl>, PSAL_QC <chr>, …
…
