Load Argo trajectories — argo_traj_meas • argodata
…
      file
      A previously downloaded Argo trajectory NetCDF file.

    Value

    A tibble::tibble().

    Examples

with_argo_example_cache({
  argo_traj_meas("dac/csio/2900313/2900313_Rtraj.nc")
})

#> # A tibble: 61 x 33
#>    float date                date_status         date_qc            
#>    <chr> <dttm>              <dttm>              <dttm>             
#>  1 csio… 2003-08-04 01:40:00 NA                  NA                 
#>  2 csio… 2003-08-04 01:40:00 NA                  NA                 
#>  3 csio… 2003-08-13 08:52:56 NA                  NA                 
#>  4 csio… 2003-08-13 12:09:46 NA                  NA                 
#>  5 csio… 2003-08-13 13:47:15 NA                  NA                 
#>  6 csio… 2003-08-13 16:59:59 NA                  NA                 
#>  7 csio… 2003-08-13 18:41:17 NA                  NA                 
#>  8 csio… 2003-08-13 18:46:50 NA                  NA                 
#>  9 csio… 2003-08-23 08:15:49 NA                  NA                 
#> 10 csio… 2003-08-23 08:19:09 NA                  NA                 
#> # … with 51 more rows, and 29 more variables: date_adjusted <dttm>,
#> #   date_adjusted_status <dttm>, date_adjusted_qc <dttm>, latitude <dbl>,
#> #   longitude <dbl>, position_accuracy <chr>, position_qc <chr>,
#> #   cycle_number <int>, cycle_number_adjusted <int>, measurement_code <int>,
#> #   pres <dbl>, pres_qc <chr>, pres_adjusted <dbl>, pres_adjusted_qc <chr>,
#> #   pres_adjusted_error <dbl>, temp <dbl>, temp_qc <chr>, temp_adjusted <dbl>,
#> #   temp_adjusted_qc <chr>, temp_adjusted_error <dbl>, psal <dbl>,
#> #   psal_qc <chr>, psal_adjusted <dbl>, psal_adjusted_qc <chr>,
#> #   psal_adjusted_error <dbl>, axes_error_ellipse_major <dbl>,
…
traj_file <- system.file(
  "cache-test/dac/csio/2900313/2900313_Rtraj.nc",
  package = "argodata"
)

argo_read_traj_meas(traj_file)

#> # A tibble: 61 x 33
#>    float   JULD JULD_STATUS JULD_QC JULD_ADJUSTED JULD_ADJUSTED_S…
#>    <chr>  <dbl> <chr>       <chr>           <dbl> <chr>           
#>  1 csio… 19573. 0           0                  NA " "             
#>  2 csio… 19573. 4           1                  NA " "             
#>  3 csio… 19582. 4           1                  NA " "             
#>  4 csio… 19583. 4           1                  NA " "             
#>  5 csio… 19583. 4           1                  NA " "             
#>  6 csio… 19583. 4           1                  NA " "             
#>  7 csio… 19583. 4           1                  NA " "             
#>  8 csio… 19583. 4           1                  NA " "             
#>  9 csio… 19592. 4           1                  NA " "             
#> 10 csio… 19592. 4           1                  NA " "             
#> # … with 51 more rows, and 27 more variables: JULD_ADJUSTED_QC <chr>,
#> #   LATITUDE <dbl>, LONGITUDE <dbl>, POSITION_ACCURACY <chr>,
#> #   POSITION_QC <chr>, CYCLE_NUMBER <int>, CYCLE_NUMBER_ADJUSTED <int>,
#> #   MEASUREMENT_CODE <int>, PRES <dbl>, PRES_QC <chr>, PRES_ADJUSTED <dbl>,
#> #   PRES_ADJUSTED_QC <chr>, PRES_ADJUSTED_ERROR <dbl>, TEMP <dbl>,
#> #   TEMP_QC <chr>, TEMP_ADJUSTED <dbl>, TEMP_ADJUSTED_QC <chr>,
#> #   TEMP_ADJUSTED_ERROR <dbl>, PSAL <dbl>, PSAL_QC <chr>, PSAL_ADJUSTED <dbl>,
#> #   PSAL_ADJUSTED_QC <chr>, PSAL_ADJUSTED_ERROR <dbl>,
#> #   AXES_ERROR_ELLIPSE_MAJOR <dbl>, AXES_ERROR_ELLIPSE_MINOR <dbl>,
…
