Extract information from an Argo path — argo_path_info • argodata
…
    Examples

argo_path_info("dac/nmdis/2901633/profiles/R2901633_052.nc")

#> # A tibble: 1 x 7
#>   file  file_float file_type file_cycle file_data_mode file_modifier
#>   <chr> <chr>      <chr>          <int> <chr>          <chr>        
#> 1 nmdi… 2901633    prof              52 R              NA           
#> # … with 1 more variable: file_descending <lgl>

with_argo_example_cache({
  argo_extract_path_info(argo_global_meta())
})

#> # A tibble: 16,062 x 10
#>    file  file_float file_type file_cycle file_data_mode file_modifier
#>    <chr> <chr>      <chr>          <int> <chr>          <chr>        
#>  1 aoml… 13857      meta              NA NA             NA           
#>  2 aoml… 13858      meta              NA NA             NA           
#>  3 aoml… 13859      meta              NA NA             NA           
#>  4 aoml… 15819      meta              NA NA             NA           
#>  5 aoml… 15820      meta              NA NA             NA           
#>  6 aoml… 15851      meta              NA NA             NA           
#>  7 aoml… 15852      meta              NA NA             NA           
#>  8 aoml… 15853      meta              NA NA             NA           
#>  9 aoml… 15854      meta              NA NA             NA           
#> 10 aoml… 15855      meta              NA NA             NA           
#> # … with 16,052 more rows, and 4 more variables: file_descending <lgl>,
#> #   profiler_type <dbl>, institution <chr>, date_update <dttm>
…
