Argo QC flag reference — argo_reference_qc_flag • argodata
…
with_argo_example_cache({
  argo_prof_levels(
    "dac/csio/2902746/profiles/BR2902746_001.nc",
    vars = c("pres", "pres_qc", "doxy", "doxy_qc")
  ) %>%
    dplyr::left_join(
      argo_reference_qc_flag,
      by = c("doxy_qc" = "qc_flag")
    )
})
#> Extracting from 1 file
#> Warning: '/Users/runner/work/_temp/Library/argodata/cache-test/dac/csio/2902746/profiles/BR2902746_001.nc' is missing variable:
#> 'PRES_QC'
#> # A tibble: 101 × 9
#>    file    n_levels n_prof  pres  doxy doxy_qc qc_description qc_comment_realti…
#>    <chr>      <int>  <int> <dbl> <dbl> <chr>   <chr>          <chr>             
#>  1 csio/2…        1      1 0.200  188. 3       Bad data that… Test 15 or Test 1…
#>  2 csio/2…        2      1 0.900  188. 3       Bad data that… Test 15 or Test 1…
#>  3 csio/2…        3      1 1.90   188. 3       Bad data that… Test 15 or Test 1…
#>  4 csio/2…        4      1 2.90   190. 3       Bad data that… Test 15 or Test 1…
#>  5 csio/2…        5      1 4      190. 3       Bad data that… Test 15 or Test 1…
#>  6 csio/2…        6      1 5      190. 3       Bad data that… Test 15 or Test 1…
#>  7 csio/2…        7      1 6      190. 3       Bad data that… Test 15 or Test 1…
#>  8 csio/2…        8      1 7.10   191. 3       Bad data that… Test 15 or Test 1…
#>  9 csio/2…        9      1 8.20   191. 3       Bad data that… Test 15 or Test 1…
#> 10 csio/2…       10      1 9.30   191. 3       Bad data that… Test 15 or Test 1…
#> # … with 91 more rows, and 1 more variable: qc_comment_delayed <chr>
…
