Read Argo float meta — argo_read_meta_config_param • argodata
…
tech_file <- system.file(
  "cache-test/dac/csio/2900313/2900313_tech.nc",
  package = "argodata"
)

argo_read_tech_tech_param(tech_file)

#> # A tibble: 96 × 4
#>    N_TECH_PARAM TECHNICAL_PARAMETER_NAME  TECHNICAL_PARAMETER_VALUE CYCLE_NUMBER
#>  *        <int> <chr>                     <chr>                            <dbl>
#>  1            1 "NUMBER_ValveActionsAtSu… "150                    …            0
#>  2            2 "CLOCK_InitialStabilizat… " 0.2                   …            0
#>  3            3 "NUMBER_PumpActionsDurin… "0                      …            0
#>  4            4 "NUMBER_RepositionsDurin… "0                      …            0
#>  5            5 "NUMBER_PumpActionsDurin… "14                     …            0
#>  6            6 "NUMBER_PumpActionsAtSur… "2                      …            0
#>  7            7 "PRES_SurfaceOffsetCorre… "1.025                  …            0
#>  8            8 "PRESSURE_InternalVacuum… "740.0                  …            0
#>  9            9 "NUMBER_AscentArgosMessa… "14                     …            0
#> 10           10 "NUMBER_AscentSamples_CO… "71                     …            0
#> # … with 86 more rows
…
