Get Started with argodata • argodata
…
  Reference

      Get Started with argodata

      Source: vignettes/articles/argodata.Rmd
      argodata.Rmd

library(argodata)

Index files

The argo_global_*() functions load the index files that list the locations of other files on the mirror:

argo_global_meta()
#> # A tibble: 16,090 x 4
#>    file                     profiler_type institution date_update        
#>    <chr>                            <dbl> <chr>       <dttm>             
#>  1 aoml/13857/13857_meta.nc           845 AO          2018-10-11 20:00:14
#>  2 aoml/13858/13858_meta.nc           845 AO          2018-10-11 20:00:15
#>  3 aoml/13859/13859_meta.nc           845 AO          2018-10-11 20:00:25
#>  4 aoml/15819/15819_meta.nc           845 AO          2018-10-11 20:00:16
#>  5 aoml/15820/15820_meta.nc           845 AO          2018-10-11 20:00:18
#>  6 aoml/15851/15851_meta.nc           845 AO          2018-10-11 20:00:26
#>  7 aoml/15852/15852_meta.nc           845 AO          2018-10-11 20:00:28
#>  8 aoml/15853/15853_meta.nc           845 AO          2018-10-11 20:00:29
#>  9 aoml/15854/15854_meta.nc           845 AO          2018-10-11 20:00:30
#> 10 aoml/15855/15855_meta.nc           845 AO          2018-10-11 20:00:34
#> # … with 16,080 more rows
argo_global_prof()
#> # A tibble: 2,362,436 x 8
#>    file  date                latitude longitude ocean profiler_type institution
#>    <chr> <dttm>                 <dbl>     <dbl> <chr>         <dbl> <chr>      
#>  1 aoml… 1997-07-29 20:03:00    0.267     -16.0 A               845 AO         
#>  2 aoml… 1997-08-09 19:21:12    0.072     -17.7 A               845 AO         
#>  3 aoml… 1997-08-20 18:45:45    0.543     -19.6 A               845 AO         
#>  4 aoml… 1997-08-31 19:39:05    1.26      -20.5 A               845 AO         
#>  5 aoml… 1997-09-11 18:58:08    0.72      -20.8 A               845 AO         
#>  6 aoml… 1997-09-22 19:57:02    1.76      -21.6 A               845 AO         
#>  7 aoml… 1997-10-03 19:15:49    2.60      -21.6 A               845 AO         
#>  8 aoml… 1997-10-14 18:39:35    1.76      -21.6 A               845 AO         
#>  9 aoml… 1997-10-25 19:32:34    1.80      -21.8 A               845 AO         
#> 10 aoml… 1997-11-05 18:51:42    1.64      -21.4 A               845 AO         
#> # … with 2,362,426 more rows, and 1 more variable: date_update <dttm>
argo_global_tech()
#> # A tibble: 15,636 x 3
#>    file                     institution date_update        
#>    <chr>                    <chr>       <dttm>             
#>  1 aoml/13857/13857_tech.nc AO          2018-10-11 20:00:14
#>  2 aoml/13858/13858_tech.nc AO          2018-10-11 20:00:15
#>  3 aoml/13859/13859_tech.nc AO          2018-10-11 20:00:25
#>  4 aoml/15819/15819_tech.nc AO          2018-10-11 20:00:16
#>  5 aoml/15820/15820_tech.nc AO          2018-10-11 20:00:18
#>  6 aoml/15851/15851_tech.nc AO          2018-10-11 20:00:26
#>  7 aoml/15852/15852_tech.nc AO          2018-10-11 20:00:28
#>  8 aoml/15853/15853_tech.nc AO          2018-10-11 20:00:29
#>  9 aoml/15854/15854_tech.nc AO          2018-10-11 20:00:30
#> 10 aoml/15855/15855_tech.nc AO          2018-10-11 20:00:34
#> # … with 15,626 more rows
argo_global_traj()
#> # A tibble: 17,222 x 8
#>    file  latitude_max latitude_min longitude_max longitude_min profiler_type
#>    <chr>        <dbl>        <dbl>         <dbl>         <dbl>         <dbl>
#>  1 aoml…         6.93        0.008        -15.0         -33.8            845
#>  2 aoml…         5.21       -0.363         -9.50        -17.8            845
#>  3 aoml…         5.93       -0.939        -18.6         -33.7            845
#>  4 aoml…        -2.66       -9.19         -16.4         -40.0            845
#>  5 aoml…        -1.98       -7.14          -9.90        -35.8            845
#>  6 aoml…        -2.73       -6.22           3.33        -21.1            845
#>  7 aoml…        -5.04       -8.44          -1.49        -18.9            845
#>  8 aoml…        -4.70       -8.25          -4.40        -18.0            845
#>  9 aoml…        -4.81       -7.20          -6.41        -12.7            845
#> 10 aoml…        -1.79       -6.00           7            -5.45           845
#> # … with 17,212 more rows, and 2 more variables: institution <chr>,
#> #   date_update <dttm>
…
#> Writing '/Users/runner/work/_temp/argo-pkgdown-cache/dac/nmdis/2901633/profiles/R2901633_058.nc'
#> Writing '/Users/runner/work/_temp/argo-pkgdown-cache/dac/nmdis/2901633/profiles/R2901633_059.nc'
#> Writing '/Users/runner/work/_temp/argo-pkgdown-cache/dac/nmdis/2901633/profiles/R2901633_060.nc'
#> Writing '/Users/runner/work/_temp/argo-pkgdown-cache/dac/nmdis/2901633/profiles/R2901633_061.nc'
#> Writing '/Users/runner/work/_temp/argo-pkgdown-cache/dac/nmdis/2901633/profiles/R2901633_062.nc'
#> Writing '/Users/runner/work/_temp/argo-pkgdown-cache/dac/nmdis/2901633/profiles/R2901633_063.nc'
#> Writing '/Users/runner/work/_temp/argo-pkgdown-cache/dac/nmdis/2901633/profiles/R2901633_064.nc'
#> Writing '/Users/runner/work/_temp/argo-pkgdown-cache/dac/nmdis/2901633/profiles/R2901633_065.nc'
#> Writing '/Users/runner/work/_temp/argo-pkgdown-cache/dac/nmdis/2901633/profiles/R2901633_066.nc'
#> Writing '/Users/runner/work/_temp/argo-pkgdown-cache/dac/nmdis/2901633/profiles/R2901633_067.nc'
#> Writing '/Users/runner/work/_temp/argo-pkgdown-cache/dac/nmdis/2901633/profiles/R2901633_068.nc'
#> Writing '/Users/runner/work/_temp/argo-pkgdown-cache/dac/nmdis/2901633/profiles/R2901633_070.nc'
#> Writing '/Users/runner/work/_temp/argo-pkgdown-cache/dac/nmdis/2901633/profiles/R2901633_069.nc'
#> Writing '/Users/runner/work/_temp/argo-pkgdown-cache/dac/nmdis/2901633/profiles/R2901633_071.nc'
#> # A tibble: 9,199 x 18
#>    float cycle_number date                 pres pres_qc pres_adjusted
#>    <chr>        <int> <dttm>              <dbl> <chr>           <dbl>
#>  1 nmdi…          123 2014-11-12 04:40:37     0 1                  NA
#>  2 nmdi…          123 2014-11-12 04:40:37     6 1                  NA
#>  3 nmdi…          123 2014-11-12 04:40:37    17 1                  NA
#>  4 nmdi…          123 2014-11-12 04:40:37    26 1                  NA
#>  5 nmdi…          123 2014-11-12 04:40:37    36 1                  NA
#>  6 nmdi…          123 2014-11-12 04:40:37    46 1                  NA
#>  7 nmdi…          123 2014-11-12 04:40:37    57 1                  NA
#>  8 nmdi…          123 2014-11-12 04:40:37    66 1                  NA
#>  9 nmdi…          123 2014-11-12 04:40:37    76 1                  NA
#> 10 nmdi…          123 2014-11-12 04:40:37    86 1                  NA
#> # … with 9,189 more rows, and 12 more variables: pres_adjusted_qc <chr>,
#> #   pres_adjusted_error <dbl>, psal <dbl>, psal_qc <chr>, psal_adjusted <dbl>,
#> #   psal_adjusted_qc <chr>, psal_adjusted_error <dbl>, temp <dbl>,
#> #   temp_qc <chr>, temp_adjusted <dbl>, temp_adjusted_qc <chr>,
#> #   temp_adjusted_error <dbl>

argo_global_prof() %>% 
  tail(100) %>% 
  argo_prof_prof()
#> # A tibble: 100 x 13
#>    float cycle_number direction data_mode date               
#>    <chr>        <int> <chr>     <chr>     <dttm>             
#>  1 nmdi…          123 A         R         2014-11-12 04:40:37
#>  2 nmdi…          124 A         R         2014-11-22 04:52:39
#>  3 nmdi…          125 A         R         2014-12-02 04:52:43
#>  4 nmdi…          126 A         R         2014-12-12 04:52:45
#>  5 nmdi…          127 A         R         2014-12-22 04:52:49
#>  6 nmdi…          128 A         R         2015-01-01 04:52:52
#>  7 nmdi…          129 A         R         2015-01-11 04:59:54
#>  8 nmdi…          130 A         R         2015-01-21 04:52:58
#>  9 nmdi…          131 A         R         2015-01-31 05:00:02
#> 10 nmdi…          132 A         R         2015-02-10 04:53:05
#> # … with 90 more rows, and 8 more variables: date_qc <dttm>,
#> #   date_location <dttm>, latitude <dbl>, longitude <dbl>, position_qc <chr>,
#> #   profile_pres_qc <chr>, profile_psal_qc <chr>, profile_temp_qc <chr>
…
#> Fetching 'https://data-argo.ifremer.fr/dac/nmdis/2901630/2901630_Rtraj.nc'
#> Fetching 'https://data-argo.ifremer.fr/dac/nmdis/2901631/2901631_Rtraj.nc'
#> Fetching 'https://data-argo.ifremer.fr/dac/nmdis/2901632/2901632_Rtraj.nc'
#> Fetching 'https://data-argo.ifremer.fr/dac/nmdis/2901633/2901633_Rtraj.nc'
#> Writing '/Users/runner/work/_temp/argo-pkgdown-cache/dac/nmdis/2901627/2901627_Rtraj.nc'
#> Writing '/Users/runner/work/_temp/argo-pkgdown-cache/dac/nmdis/2901626/2901626_Rtraj.nc'
#> Writing '/Users/runner/work/_temp/argo-pkgdown-cache/dac/nmdis/2901631/2901631_Rtraj.nc'
#> Writing '/Users/runner/work/_temp/argo-pkgdown-cache/dac/nmdis/2901632/2901632_Rtraj.nc'
#> Writing '/Users/runner/work/_temp/argo-pkgdown-cache/dac/nmdis/2901625/2901625_Rtraj.nc'
#> Writing '/Users/runner/work/_temp/argo-pkgdown-cache/dac/nmdis/2901629/2901629_Rtraj.nc'
#> Writing '/Users/runner/work/_temp/argo-pkgdown-cache/dac/nmdis/2901624/2901624_Rtraj.nc'
#> Writing '/Users/runner/work/_temp/argo-pkgdown-cache/dac/nmdis/2901633/2901633_Rtraj.nc'
#> Writing '/Users/runner/work/_temp/argo-pkgdown-cache/dac/nmdis/2901628/2901628_Rtraj.nc'
#> Writing '/Users/runner/work/_temp/argo-pkgdown-cache/dac/nmdis/2901630/2901630_Rtraj.nc'
#> # A tibble: 73,796 x 34
#>    float date                date_status         date_qc            
#>    <chr> <dttm>              <dttm>              <dttm>             
#>  1 nmdi… 2010-04-25 07:13:00 NA                  NA                 
#>  2 nmdi… 2010-05-28 11:30:00 NA                  NA                 
#>  3 nmdi… 2010-05-28 11:54:00 NA                  NA                 
#>  4 nmdi… NA                  NA                  NA                 
#>  5 nmdi… 2010-05-28 19:42:00 NA                  NA                 
#>  6 nmdi… 2010-05-29 07:00:00 NA                  NA                 
#>  7 nmdi… 2010-05-29 19:00:00 NA                  NA                 
#>  8 nmdi… 2010-05-30 07:00:00 NA                  NA                 
#>  9 nmdi… 2010-05-30 19:00:00 NA                  NA                 
#> 10 nmdi… 2010-05-31 07:00:00 NA                  NA                 
#> # … with 73,786 more rows, and 30 more variables: date_adjusted <dttm>,
#> #   date_adjusted_status <dttm>, date_adjusted_qc <dttm>, latitude <dbl>,
#> #   longitude <dbl>, position_accuracy <chr>, position_qc <chr>,
#> #   cycle_number <int>, cycle_number_adjusted <int>, measurement_code <int>,
#> #   axes_error_ellipse_major <dbl>, axes_error_ellipse_minor <dbl>,
#> #   axes_error_ellipse_angle <dbl>, satellite_name <chr>, pres <dbl>,
#> #   pres_qc <chr>, pres_adjusted <dbl>, pres_adjusted_qc <chr>,
#> #   pres_adjusted_error <dbl>, temp <dbl>, temp_qc <chr>, temp_adjusted <dbl>,
#> #   temp_adjusted_qc <chr>, temp_adjusted_error <dbl>, psal <dbl>,
#> #   psal_qc <chr>, psal_adjusted <dbl>, psal_adjusted_qc <chr>,
#> #   psal_adjusted_error <dbl>, data_mode <chr>

argo_global_traj() %>% 
  tail(10) %>% 
  argo_traj_cycle()
#> # A tibble: 1,461 x 43
#>    float date_descent_start  date_descent_start… date_first_stabili…
#>    <chr> <dttm>              <dttm>              <dttm>             
#>  1 nmdi… 2010-05-28 11:27:00 NA                  2010-05-28 11:51:00
#>  2 nmdi… 2010-06-17 11:15:00 NA                  2010-06-17 11:39:00
#>  3 nmdi… 2010-06-27 11:27:00 NA                  2010-06-27 11:45:00
#>  4 nmdi… 2010-07-07 11:33:00 NA                  2010-07-07 11:51:00
#>  5 nmdi… 2010-07-17 11:27:00 NA                  2010-07-17 11:57:00
#>  6 nmdi… 2010-07-27 11:33:00 NA                  2010-07-27 11:51:00
#>  7 nmdi… 2010-08-06 11:27:00 NA                  2010-08-06 11:45:00
#>  8 nmdi… 2010-08-16 11:27:00 NA                  2010-08-16 11:51:00
#>  9 nmdi… 2010-08-26 11:33:00 NA                  2010-08-26 11:45:00
#> 10 nmdi… 2010-09-05 11:27:00 NA                  2010-09-05 11:51:00
#> # … with 1,451 more rows, and 39 more variables:
#> #   date_first_stabilization_status <dttm>, date_descent_end <dttm>,
#> #   date_descent_end_status <dttm>, date_park_start <dttm>,
#> #   date_park_start_status <dttm>, date_park_end <dttm>,
#> #   date_park_end_status <dttm>, date_deep_descent_end <dttm>,
#> #   date_deep_descent_end_status <dttm>, date_deep_park_start <dttm>,
#> #   date_deep_park_start_status <dttm>, date_ascent_start <dttm>,
#> #   date_ascent_start_status <dttm>, date_deep_ascent_start <dttm>,
#> #   date_deep_ascent_start_status <dttm>, date_ascent_end <dttm>,
…
Reading Argo NetCDF files

If you have previously downloaded Argo data, you can use argo_read_*() functions:

(profile_nc <- argo_download("dac/nmdis/2901633/profiles/R2901633_070.nc"))
#> [1] "/Users/runner/work/_temp/argo-pkgdown-cache/dac/nmdis/2901633/profiles/R2901633_070.nc"
argo_read_prof_levels(profile_nc)
#> # A tibble: 95 x 28
#>    float CYCLE_NUMBER DIRECTION DATA_MODE   JULD JULD_QC JULD_LOCATION LATITUDE
#>    <chr>        <int> <chr>     <chr>      <dbl> <chr>           <dbl>    <dbl>
#>  1 nmdi…           70 A         R         23161. 1              23161.     27.9
#>  2 nmdi…           70 A         R         23161. 1              23161.     27.9
#>  3 nmdi…           70 A         R         23161. 1              23161.     27.9
#>  4 nmdi…           70 A         R         23161. 1              23161.     27.9
#>  5 nmdi…           70 A         R         23161. 1              23161.     27.9
#>  6 nmdi…           70 A         R         23161. 1              23161.     27.9
#>  7 nmdi…           70 A         R         23161. 1              23161.     27.9
#>  8 nmdi…           70 A         R         23161. 1              23161.     27.9
#>  9 nmdi…           70 A         R         23161. 1              23161.     27.9
#> 10 nmdi…           70 A         R         23161. 1              23161.     27.9
#> # … with 85 more rows, and 20 more variables: LONGITUDE <dbl>,
#> #   POSITION_QC <chr>, PROFILE_PRES_QC <chr>, PROFILE_PSAL_QC <chr>,
#> #   PROFILE_TEMP_QC <chr>, PRES <dbl>, PRES_QC <chr>, PRES_ADJUSTED <dbl>,
#> #   PRES_ADJUSTED_QC <chr>, PRES_ADJUSTED_ERROR <dbl>, PSAL <dbl>,
#> #   PSAL_QC <chr>, PSAL_ADJUSTED <dbl>, PSAL_ADJUSTED_QC <chr>,
#> #   PSAL_ADJUSTED_ERROR <dbl>, TEMP <dbl>, TEMP_QC <chr>, TEMP_ADJUSTED <dbl>,
#> #   TEMP_ADJUSTED_QC <chr>, TEMP_ADJUSTED_ERROR <dbl>
…
