Example: Virtual moorings and sections • argodata
…
profiles
#> # A tibble: 1,066 × 14
#>    file   file_float date                latitude longitude file_type file_cycle
#>    <chr>  <chr>      <dttm>                 <dbl>     <dbl> <chr>          <int>
#>  1 corio… 6900562    2011-01-04 18:46:44     56.4     -51.5 prof              58
#>  2 corio… 6900555    2011-01-10 16:40:12     56.4     -47.6 prof              60
#>  3 corio… 6900562    2011-01-19 18:10:01     56.1     -51.7 prof              59
#>  4 meds/… 4900683    2011-01-27 03:55:00     54.7     -49.0 prof             170
#>  5 meds/… 4901152    2011-01-27 23:17:00     55.3     -47.2 prof              26
#>  6 meds/… 4900683    2011-02-06 07:13:00     55.0     -48.7 prof             171
#>  7 meds/… 4900683    2011-02-16 03:49:00     55.2     -47.9 prof             172
#>  8 corio… 6900562    2011-02-18 17:56:00     56.4     -51.2 prof              61
#>  9 meds/… 4901123    2011-02-25 08:59:00     56.7     -50.8 prof              65
#> 10 meds/… 4901123    2011-03-07 11:33:00     56.7     -50.9 prof              66
#> # … with 1,056 more rows, and 7 more variables: file_data_mode <chr>,
#> #   file_modifier <chr>, file_descending <lgl>, ocean <chr>,
#> #   profiler_type <dbl>, institution <chr>, date_update <dttm>
…
You can use plots like this to ensure that you have a reasonable density of samples in both space and time for the question you are trying to answer. Once you’ve done this, you can load profile levels using argo_prof_levels(). This will download the files from the Argo server and load them into a table with one row per profile per sampling level. This will take about 90 seconds depending on your internet connection and system configuration.

levels <- argo_prof_levels(profiles) %>% 
  select(file, pres, temp, temp_qc, everything())
#> Downloading 1066 files from 'https://data-argo.ifremer.fr'
#> Extracting from 1066 files

levels
#> # A tibble: 654,686 × 18
#>    file                 pres  temp temp_qc n_levels n_prof pres_qc pres_adjusted
#>    <chr>               <dbl> <dbl> <chr>      <int>  <int> <chr>           <dbl>
#>  1 coriolis/6900562/p…  10    5.20 1              1      1 1                8.10
#>  2 coriolis/6900562/p…  19.9  5.23 1              2      1 1               18   
#>  3 coriolis/6900562/p…  30.5  5.20 1              3      1 1               28.6 
#>  4 coriolis/6900562/p…  40.5  5.07 1              4      1 1               38.6 
#>  5 coriolis/6900562/p…  48    4.88 1              5      1 1               46.1 
#>  6 coriolis/6900562/p…  60.5  4.87 1              6      1 1               58.6 
#>  7 coriolis/6900562/p…  70.4  4.87 1              7      1 1               68.5 
#>  8 coriolis/6900562/p…  80.2  4.86 1              8      1 1               78.3 
#>  9 coriolis/6900562/p…  99.9  4.83 1              9      1 1               98   
#> 10 coriolis/6900562/p… 120    4.81 1             10      1 1              118.  
#> # … with 654,676 more rows, and 10 more variables: pres_adjusted_qc <chr>,
#> #   pres_adjusted_error <dbl>, temp_adjusted <dbl>, temp_adjusted_qc <chr>,
#> #   temp_adjusted_error <dbl>, psal <dbl>, psal_qc <chr>, psal_adjusted <dbl>,
#> #   psal_adjusted_qc <chr>, psal_adjusted_error <dbl>
…
We will mitigate the effects of both these complicating behaviours using weighting. To ensure that a single float does not contribute unduly to any particular prediction, we can weight each profile as 1 / n, where n is the number of profiles in a given time frame contributed by a single float. We can also weight profiles taken farther from the mooring location less than those taken close to the mooring location; however, the choice of how severely to punish profiles taken far from the mooring location makes a considerable difference to the result. One method is to use the inverse of the distance, which produces a rather severe punishment as distance from the centre increases. Here we will use 1 / sqrt(distance) to mitigate the penalty. The distance weights we can calculate before binning; the float weights depend on our choice of bins.

profile_weighted <- profiles %>%
  mutate(
    distance_km = s2::s2_distance(
      s2::s2_lnglat(longitude, latitude), 
      s2::s2_lnglat(mooring_lon, mooring_lat)
    ) / 1000,
    distance_weight = 1 / sqrt(distance_km)
  ) %>% 
  select(file, longitude, latitude, distance_km, distance_weight)

profile_weighted
#> # A tibble: 1,066 × 5
#>    file                           longitude latitude distance_km distance_weight
#>    <chr>                              <dbl>    <dbl>       <dbl>           <dbl>
#>  1 coriolis/6900562/profiles/D69…     -51.5     56.4       146.           0.0828
#>  2 coriolis/6900555/profiles/D69…     -47.6     56.4       141.           0.0844
#>  3 coriolis/6900562/profiles/D69…     -51.7     56.1       144.           0.0834
#>  4 meds/4900683/profiles/D490068…     -49.0     54.7       118.           0.0921
#>  5 meds/4901152/profiles/D490115…     -47.2     55.3       148.           0.0823
#>  6 meds/4900683/profiles/D490068…     -48.7     55.0        92.3          0.104 
#>  7 meds/4900683/profiles/D490068…     -47.9     55.2       119.           0.0915
#>  8 coriolis/6900562/profiles/D69…     -51.2     56.4       131.           0.0875
#>  9 meds/4901123/profiles/D490112…     -50.8     56.7       140.           0.0845
#> 10 meds/4901123/profiles/D490112…     -50.9     56.7       142.           0.0838
#> # … with 1,056 more rows

The next step is to choose bins that are appropriate to the scale of the problem. In this case, we’re interested in monthly bins (regardless of year) and depth bins 10 decibars in height. These bin sizes reflect the amount of data we have: if we were only summarizing 2019, for which there are many profiles with high-resolution sampling intervals, we may be able to use smaller bins (e.g., one bin per month per year or 1 decibar height).

levels_binned <- levels_clean %>%
  left_join(profiles %>% select(file, date), by = "file") %>% 
  mutate(
    pres_bin = floor(pres / 100) * 100 + 50,
    date_bin = month(date)
  ) %>% 
  select(pres_bin, date_bin, everything())

levels_binned
#> # A tibble: 258,500 × 21
#>    pres_bin date_bin file             pres  temp temp_qc n_levels n_prof pres_qc
#>       <dbl>    <dbl> <chr>           <dbl> <dbl> <chr>      <int>  <int> <chr>  
#>  1       50        1 coriolis/69005…  10    5.20 1              1      1 1      
#>  2       50        1 coriolis/69005…  19.9  5.23 1              2      1 1      
#>  3       50        1 coriolis/69005…  30.5  5.20 1              3      1 1      
#>  4       50        1 coriolis/69005…  40.5  5.07 1              4      1 1      
#>  5       50        1 coriolis/69005…  48    4.88 1              5      1 1      
#>  6       50        1 coriolis/69005…  60.5  4.87 1              6      1 1      
#>  7       50        1 coriolis/69005…  70.4  4.87 1              7      1 1      
#>  8       50        1 coriolis/69005…  80.2  4.86 1              8      1 1      
#>  9       50        1 coriolis/69005…  99.9  4.83 1              9      1 1      
#> 10      150        1 coriolis/69005… 120    4.81 1             10      1 1      
#> # … with 258,490 more rows, and 12 more variables: pres_adjusted <dbl>,
#> #   pres_adjusted_qc <chr>, pres_adjusted_error <dbl>, temp_adjusted <dbl>,
#> #   temp_adjusted_qc <chr>, temp_adjusted_error <dbl>, psal <dbl>,
#> #   psal_qc <chr>, psal_adjusted <dbl>, psal_adjusted_qc <chr>,
#> #   psal_adjusted_error <dbl>, date <dttm>
Next we can calculate the weights to ensure each profile does not contribute more than its share to the values calculated for a given bin and apply the weights based on distance we calculated above.

levels_binned_weighted <- levels_binned %>% 
  group_by(pres_bin, date_bin, file, n_prof) %>% 
  mutate(profile_weight = 1 / n()) %>% 
  ungroup() %>% 
  left_join(profile_weighted, by = "file") %>% 
  mutate(weight = profile_weight * distance_weight) %>% 
  group_by(pres_bin, date_bin) %>% 
  mutate(weight = weight / sum(weight)) %>% 
  ungroup() %>% 
  select(pres_bin, date_bin, weight, file, date, pres, temp, everything())

levels_binned_weighted
#> # A tibble: 258,500 × 27
#>    pres_bin date_bin  weight file        date                 pres  temp temp_qc
#>       <dbl>    <dbl>   <dbl> <chr>       <dttm>              <dbl> <dbl> <chr>  
#>  1       50        1 0.00161 coriolis/6… 2011-01-04 18:46:44  10    5.20 1      
#>  2       50        1 0.00161 coriolis/6… 2011-01-04 18:46:44  19.9  5.23 1      
#>  3       50        1 0.00161 coriolis/6… 2011-01-04 18:46:44  30.5  5.20 1      
#>  4       50        1 0.00161 coriolis/6… 2011-01-04 18:46:44  40.5  5.07 1      
#>  5       50        1 0.00161 coriolis/6… 2011-01-04 18:46:44  48    4.88 1      
#>  6       50        1 0.00161 coriolis/6… 2011-01-04 18:46:44  60.5  4.87 1      
#>  7       50        1 0.00161 coriolis/6… 2011-01-04 18:46:44  70.4  4.87 1      
#>  8       50        1 0.00161 coriolis/6… 2011-01-04 18:46:44  80.2  4.86 1      
#>  9       50        1 0.00161 coriolis/6… 2011-01-04 18:46:44  99.9  4.83 1      
#> 10      150        1 0.00362 coriolis/6… 2011-01-04 18:46:44 120    4.81 1      
#> # … with 258,490 more rows, and 19 more variables: n_levels <int>,
#> #   n_prof <int>, pres_qc <chr>, pres_adjusted <dbl>, pres_adjusted_qc <chr>,
#> #   pres_adjusted_error <dbl>, temp_adjusted <dbl>, temp_adjusted_qc <chr>,
#> #   temp_adjusted_error <dbl>, psal <dbl>, psal_qc <chr>, psal_adjusted <dbl>,
#> #   psal_adjusted_qc <chr>, psal_adjusted_error <dbl>, profile_weight <dbl>,
#> #   longitude <dbl>, latitude <dbl>, distance_km <dbl>, distance_weight <dbl>
…
We can use the line to subset profiles based on the criteria we discussed above, this time adding in s2::s2_dwithin() to find profiles within a specified distance of our profile line. I’ve chosen a threshold of 100 km in this case. Because s2 package functions work on s2_geography objects, I’ve kept the geography vector representing the point where the profile was collected so that we can use it later without recalculating.

section_profiles <- argo_global_prof() %>%
  argo_filter_data_mode("delayed") %>% 
  argo_filter_date(
    date_min = mooring_start,
    date_max = mooring_end
  ) %>% 
  mutate(geog = s2_geog_point(longitude, latitude)) %>% 
  filter(s2_dwithin(geog, section_line, 100 * 1000))

section_profiles
#> # A tibble: 1,031 × 9
#>    file   date                latitude longitude ocean profiler_type institution
#>    <chr>  <dttm>                 <dbl>     <dbl> <chr>         <dbl> <chr>      
#>  1 aoml/… 2012-10-22 10:34:31     39.4     -59.8 A               851 AO         
#>  2 aoml/… 2013-09-27 10:39:33     40.9     -59.8 A               851 AO         
#>  3 aoml/… 2013-10-27 10:36:48     39.7     -58.6 A               851 AO         
#>  4 aoml/… 2013-09-20 11:28:08     39.0     -59.1 A               851 AO         
#>  5 aoml/… 2013-09-30 11:29:03     39.8     -58.5 A               851 AO         
#>  6 aoml/… 2013-10-10 11:26:16     40.5     -60.8 A               851 AO         
#>  7 aoml/… 2014-03-19 11:00:33     38.9     -60.2 A               851 AO         
#>  8 aoml/… 2014-06-17 11:30:03     39.0     -60.0 A               851 AO         
#>  9 aoml/… 2014-06-27 11:28:16     40.4     -60.6 A               851 AO         
#> 10 aoml/… 2014-07-27 11:30:05     37.5     -58.7 A               851 AO         
#> # … with 1,021 more rows, and 2 more variables: date_update <dttm>,
#> #   geog <s2_geography>
…
Now we’re ready to bin! While it is also valid to bin using a date_bin if enough profiles are available, in this case I’m going to demonstrate binning along the transect such that there are still two bin dimensions. When calculating uncertainty, this should show up in our results for the top pressure bins whose temperature responds most readily to seasonal fluctuations.

section_levels_binned <- section_levels_clean %>%
  left_join(section_profile_weighted, by = "file") %>% 
  mutate(
    pres_bin = floor(pres / 100) * 100 + 50,
    distance_bin = floor(distance_along_section_km / 40) * 40 + 20
  )

section_levels_binned
#> # A tibble: 382,119 × 30
#>    file             n_levels n_prof  pres pres_qc pres_adjusted pres_adjusted_qc
#>    <chr>               <int>  <int> <dbl> <chr>           <dbl> <chr>           
#>  1 aoml/1901465/pr…        1      1     5 1                   5 1               
#>  2 aoml/1901465/pr…        2      1    10 1                  10 1               
#>  3 aoml/1901465/pr…        3      1    15 1                  15 1               
#>  4 aoml/1901465/pr…        4      1    20 1                  20 1               
#>  5 aoml/1901465/pr…        5      1    25 1                  25 1               
#>  6 aoml/1901465/pr…        6      1    30 1                  30 1               
#>  7 aoml/1901465/pr…        7      1    35 1                  35 1               
#>  8 aoml/1901465/pr…        8      1    40 1                  40 1               
#>  9 aoml/1901465/pr…        9      1    45 1                  45 1               
#> 10 aoml/1901465/pr…       10      1    50 1                  50 1               
#> # … with 382,109 more rows, and 23 more variables: pres_adjusted_error <dbl>,
#> #   temp <dbl>, temp_qc <chr>, temp_adjusted <dbl>, temp_adjusted_qc <chr>,
#> #   temp_adjusted_error <dbl>, psal <dbl>, psal_qc <chr>, psal_adjusted <dbl>,
#> #   psal_adjusted_qc <chr>, psal_adjusted_error <dbl>, cndc <dbl>,
#> #   cndc_qc <chr>, cndc_adjusted <dbl>, cndc_adjusted_qc <chr>,
#> #   cndc_adjusted_error <dbl>, geog <s2_geography>,
#> #   point_on_section <s2_geography>, distance_km <dbl>, …
…
section_levels_aggregated
#> # A tibble: 473 × 3
#>    distance_bin pres_bin temp_mean
#>           <dbl>    <dbl>     <dbl>
#>  1           20       50     16.2 
#>  2           20      150     14.2 
#>  3           20      250     12.2 
#>  4           20      350     10.1 
#>  5           20      450      8.08
#>  6           20      550      6.66
#>  7           20      650      5.72
#>  8           20      750      5.17
#>  9           20      850      4.84
#> 10           20      950      4.59
#> # … with 463 more rows
…
